…
n_at_least_50 <- results |>
  filter(prob >= 0.5) |>
  slice_head(n = 1) |>
  pull(n)

prob_23 <- results |> filter(n == 23) |> pull(prob)
prob_50 <- results |> filter(n == 50) |> pull(prob)

results
```

    ## # A tibble: 49 × 5
    ##        n   prob       se   lower   upper
    ##    <int>  <dbl>    <dbl>   <dbl>   <dbl>
    ##  1     2 0.0024 0.000489 0.00144 0.00336
    ##  2     3 0.007  0.000834 0.00537 0.00863
    ##  3     4 0.0173 0.00130  0.0147  0.0199 
    ##  4     5 0.0258 0.00159  0.0227  0.0289 
    ##  5     6 0.0378 0.00191  0.0341  0.0415 
    ##  6     7 0.0539 0.00226  0.0495  0.0583 
    ##  7     8 0.0755 0.00264  0.0703  0.0807 
    ##  8     9 0.0925 0.00290  0.0868  0.0982 
    ##  9    10 0.121  0.00326  0.115   0.127  
    ## 10    11 0.138  0.00344  0.131   0.144  
    ## # ℹ 39 more rows
…
